…
## Data Cleaning & Set Up

Now we're going to import our dataset. Twenty rows of the dataset are shown below so you can get a good feel for what kind of data we have.

```julia
# Import the "iris" dataset.
data = RDatasets.dataset("datasets", "iris");

# Show twenty random rows.
data[rand(1:size(data, 1), 20), :]
```

```
20×5 DataFrame
 Row │ SepalLength  SepalWidth  PetalLength  PetalWidth  Species
     │ Float64      Float64     Float64      Float64     Cat…
─────┼──────────────────────────────────────────────────────────────
   1 │         5.9         3.2          4.8         1.8  versicolor
   2 │         7.7         3.8          6.7         2.2  virginica
   3 │         5.9         3.0          4.2         1.5  versicolor
   4 │         6.3         2.9          5.6         1.8  virginica
   5 │         6.3         2.7          4.9         1.8  virginica
   6 │         4.8         3.4          1.6         0.2  setosa
   7 │         6.5         3.0          5.5         1.8  virginica
   8 │         5.0         3.4          1.5         0.2  setosa
  ⋮  │      ⋮           ⋮            ⋮           ⋮           ⋮
  14 │         5.6         2.8          4.9         2.0  virginica
  15 │         6.4         2.8          5.6         2.1  virginica
  16 │         7.2         3.6          6.1         2.5  virginica
  17 │         5.6         2.5          3.9         1.1  versicolor
  18 │         5.8         2.8          5.1         2.4  virginica
  19 │         5.8         2.7          4.1         1.0  versicolor
  20 │         5.0         3.4          1.5         0.2  setosa
                                                      5 rows omitted
```


In this data set, the outcome `Species` is currently coded as a string. We convert it to a numerical value by using indices `1`, `2`, and `3` to indicate species `setosa`, `versicolor`, and `virginica`, respectively.

```julia
# Recode the `Species` column.
species = ["setosa", "versicolor", "virginica"]
data[!, :Species_index] = indexin(data[!, :Species], species)

# Show twenty random rows of the new species columns
data[rand(1:size(data, 1), 20), [:Species, :Species_index]]
```

```
20×2 DataFrame
 Row │ Species     Species_index
     │ Cat…        Union…
─────┼───────────────────────────
   1 │ setosa      1
   2 │ virginica   3
   3 │ setosa      1
   4 │ versicolor  2
   5 │ setosa      1
   6 │ versicolor  2
   7 │ versicolor  2
   8 │ setosa      1
  ⋮  │     ⋮             ⋮
  14 │ setosa      1
  15 │ virginica   3
  16 │ virginica   3
  17 │ setosa      1
  18 │ versicolor  2
  19 │ virginica   3
  20 │ versicolor  2
                   5 rows omitted
```
…
